%YAML 1.1
%TAG !u! tag:unity3d.com,2011:
--- !u!1 &1383242614835821894
GameObject:
  m_ObjectHideFlags: 0
  m_CorrespondingSourceObject: {fileID: 0}
  m_PrefabInstance: {fileID: 0}
  m_PrefabAsset: {fileID: 0}
  serializedVersion: 6
  m_Component:
  - component: {fileID: 5465046459095915948}
  - component: {fileID: 3082370857457605989}
  m_Layer: 0
  m_Name: Pool_Actor
  m_TagString: Untagged
  m_Icon: {fileID: 0}
  m_NavMeshLayer: 0
  m_StaticEditorFlags: 0
  m_IsActive: 1
--- !u!4 &5465046459095915948
Transform:
  m_ObjectHideFlags: 0
  m_CorrespondingSourceObject: {fileID: 0}
  m_PrefabInstance: {fileID: 0}
  m_PrefabAsset: {fileID: 0}
  m_GameObject: {fileID: 1383242614835821894}
  m_LocalRotation: {x: 0, y: 0, z: 0, w: 1}
  m_LocalPosition: {x: 0, y: 0, z: 0}
  m_LocalScale: {x: 1, y: 1, z: 1}
  m_Children: []
  m_Father: {fileID: 0}
  m_RootOrder: 0
  m_LocalEulerAnglesHint: {x: 0, y: 0, z: 0}
--- !u!114 &3082370857457605989
MonoBehaviour:
  m_ObjectHideFlags: 0
  m_CorrespondingSourceObject: {fileID: 0}
  m_PrefabInstance: {fileID: 0}
  m_PrefabAsset: {fileID: 0}
  m_GameObject: {fileID: 1383242614835821894}
  m_Enabled: 1
  m_EditorHideFlags: 0
  m_Script: {fileID: 11500000, guid: bf3babc5ad6077047af729921cbfbf9c, type: 3}
  m_Name: 
  m_EditorClassIdentifier: 
  Name: Actor
  SpawnList:
  - component: {fileID: -1462366622371327192, guid: a6c6751db39313942befd8557edc6131,
      type: 3}
    isComponent: 1
    isEquals: 0
    preloadAmount: 5
    parent: {fileID: 0}
  - component: {fileID: -3880885193761657199, guid: 6c766e4f6e8b2b14398e2b6f7e69c0bf,
      type: 3}
    isComponent: 1
    isEquals: 0
    preloadAmount: 0
    parent: {fileID: 0}
  - component: {fileID: 2828440724103826012, guid: 50d321ff237e40c498718f80166645a2,
      type: 3}
    isComponent: 1
    isEquals: 0
    preloadAmount: 0
    parent: {fileID: 0}
  - component: {fileID: -6772203952966986168, guid: 03ae7e638b8e1f74483dbf98d58261a2,
      type: 3}
    isComponent: 1
    isEquals: 0
    preloadAmount: 0
    parent: {fileID: 0}
  - component: {fileID: -6772203952966986168, guid: 47af1ccf318ac0147afceee26f0c0d36,
      type: 3}
    isComponent: 1
    isEquals: 0
    preloadAmount: 0
    parent: {fileID: 0}
