%YAML 1.1
%TAG !u! tag:unity3d.com,2011:
--- !u!114 &11400000
MonoBehaviour:
  m_ObjectHideFlags: 0
  m_CorrespondingSourceObject: {fileID: 0}
  m_PrefabInstance: {fileID: 0}
  m_PrefabAsset: {fileID: 0}
  m_GameObject: {fileID: 0}
  m_Enabled: 1
  m_EditorHideFlags: 0
  m_Script: {fileID: 11500000, guid: 386ee302f6669784ab72c5b61edfc555, type: 3}
  m_Name: TableManager
  m_EditorClassIdentifier: 
  spreadSheetName: PlayCoreTT
  assetFolder:
    path: Assets/Resources/Table/AssetPath
  scriptFolder:
    path: Assets/Resources/Table/Scripts
  code: 4/1AX4XfWhXz7pstcNWVJxQO3YP4QMxqi_DxxIT7TbeWOaRTdsEGwdj56CCKdc
  corePrefixName: 
  prefixName: 
  suffixName: 
  tables:
    m_keys:
    - TableAttendance
    m_values:
    - {fileID: 11400000, guid: bd3bc177f48bea04a9633a4c5e0c60d0, type: 2}
  accessToken: ya29.a0ARrdaM9FG9eb5c0Fy9xvjNYFeKCa65xVNmrMdxEA9cB-eB-U4548p6Zx_dHj6roNIl0ijakRC-DKGGwTx6qnC483EwSeCXiVepNtUeOgFv2T7lq4ABVwSBFbuDPHHXECrGp_jGaMxJIfKMbahfBk51Xypxe5arM
  refreshToken: 1//0eYET0NemKiSnCgYIARAAGA4SNwF-L9IrZdzxopHIm_SZbepr1jOb-PRxDjUJ0mEIBCvvZYyzwbpL6Ij3Ghmnn_eXH0nLQoFPMzA
  accessTokenTimeout: 2021-09-07 PM 3:46:17
