%YAML 1.1
%TAG !u! tag:unity3d.com,2011:
--- !u!29 &1
OcclusionCullingSettings:
  m_ObjectHideFlags: 0
  serializedVersion: 2
  m_OcclusionBakeSettings:
    smallestOccluder: 5
    smallestHole: 0.25
    backfaceThreshold: 100
  m_SceneGUID: 00000000000000000000000000000000
  m_OcclusionCullingData: {fileID: 0}
--- !u!104 &2
RenderSettings:
  m_ObjectHideFlags: 0
  serializedVersion: 9
  m_Fog: 0
  m_FogColor: {r: 0.5, g: 0.5, b: 0.5, a: 1}
  m_FogMode: 3
  m_FogDensity: 0.01
  m_LinearFogStart: 0
  m_LinearFogEnd: 300
  m_AmbientSkyColor: {r: 0.2, g: 0.2, b: 0.2, a: 1}
  m_AmbientEquatorColor: {r: 0.2, g: 0.2, b: 0.2, a: 1}
  m_AmbientGroundColor: {r: 0.2, g: 0.2, b: 0.2, a: 1}
  m_AmbientIntensity: 1
  m_AmbientMode: 3
  m_SubtractiveShadowColor: {r: 0.42, g: 0.478, b: 0.627, a: 1}
  m_SkyboxMaterial: {fileID: 0}
  m_HaloStrength: 0.5
  m_FlareStrength: 1
  m_FlareFadeSpeed: 3
  m_HaloTexture: {fileID: 0}
  m_SpotCookie: {fileID: 10001, guid: 0000000000000000e000000000000000, type: 0}
  m_DefaultReflectionMode: 0
  m_DefaultReflectionResolution: 128
  m_ReflectionBounces: 1
  m_ReflectionIntensity: 1
  m_CustomReflection: {fileID: 0}
  m_Sun: {fileID: 0}
  m_IndirectSpecularColor: {r: 0, g: 0, b: 0, a: 1}
  m_UseRadianceAmbientProbe: 0
--- !u!157 &4
LightmapSettings:
  m_ObjectHideFlags: 0
  serializedVersion: 12
  m_GIWorkflowMode: 1
  m_GISettings:
    serializedVersion: 2
    m_BounceScale: 1
    m_IndirectOutputScale: 1
    m_AlbedoBoost: 1
    m_EnvironmentLightingMode: 0
    m_EnableBakedLightmaps: 1
    m_EnableRealtimeLightmaps: 0
  m_LightmapEditorSettings:
    serializedVersion: 12
    m_Resolution: 1
    m_BakeResolution: 50
    m_AtlasSize: 1024
    m_AO: 1
    m_AOMaxDistance: 1
    m_CompAOExponent: 1
    m_CompAOExponentDirect: 0
    m_ExtractAmbientOcclusion: 0
    m_Padding: 2
    m_LightmapParameters: {fileID: 0}
    m_LightmapsBakeMode: 1
    m_TextureCompression: 0
    m_FinalGather: 0
    m_FinalGatherFiltering: 1
    m_FinalGatherRayCount: 256
    m_ReflectionCompression: 2
    m_MixedBakeMode: 1
    m_BakeBackend: 0
    m_PVRSampling: 1
    m_PVRDirectSampleCount: 32
    m_PVRSampleCount: 512
    m_PVRBounces: 2
    m_PVREnvironmentSampleCount: 512
    m_PVREnvironmentReferencePointCount: 2048
    m_PVRFilteringMode: 0
    m_PVRDenoiserTypeDirect: 0
    m_PVRDenoiserTypeIndirect: 0
    m_PVRDenoiserTypeAO: 0
    m_PVRFilterTypeDirect: 0
    m_PVRFilterTypeIndirect: 0
    m_PVRFilterTypeAO: 0
    m_PVREnvironmentMIS: 0
    m_PVRCulling: 1
    m_PVRFilteringGaussRadiusDirect: 1
    m_PVRFilteringGaussRadiusIndirect: 5
    m_PVRFilteringGaussRadiusAO: 2
    m_PVRFilteringAtrousPositionSigmaDirect: 0.5
    m_PVRFilteringAtrousPositionSigmaIndirect: 2
    m_PVRFilteringAtrousPositionSigmaAO: 1
    m_ExportTrainingData: 0
    m_TrainingDataDestination: TrainingData
    m_LightProbeSampleCountMultiplier: 4
  m_LightingDataAsset: {fileID: 0}
  m_LightingSettings: {fileID: 4890085278179872738, guid: 55ddeefde1a2ac649b075fe0fd68983e,
    type: 2}
--- !u!196 &5
NavMeshSettings:
  serializedVersion: 2
  m_ObjectHideFlags: 0
  m_BuildSettings:
    serializedVersion: 2
    agentTypeID: 0
    agentRadius: 0.5
    agentHeight: 2
    agentSlope: 45
    agentClimb: 0.4
    ledgeDropHeight: 0
    maxJumpAcrossDistance: 0
    minRegionArea: 2
    manualCellSize: 0
    cellSize: 0.16666666
    manualTileSize: 0
    tileSize: 256
    accuratePlacement: 0
    maxJobWorkers: 0
    preserveTilesOutsideBounds: 0
    debug:
      m_Flags: 0
  m_NavMeshData: {fileID: 0}
--- !u!1 &90831113
GameObject:
  m_ObjectHideFlags: 0
  m_CorrespondingSourceObject: {fileID: 0}
  m_PrefabInstance: {fileID: 0}
  m_PrefabAsset: {fileID: 0}
  serializedVersion: 6
  m_Component:
  - component: {fileID: 90831115}
  - component: {fileID: 90831114}
  m_Layer: 0
  m_Name: PlayMakerGUI
  m_TagString: Untagged
  m_Icon: {fileID: 0}
  m_NavMeshLayer: 0
  m_StaticEditorFlags: 0
  m_IsActive: 1
--- !u!114 &90831114
MonoBehaviour:
  m_ObjectHideFlags: 0
  m_CorrespondingSourceObject: {fileID: 0}
  m_PrefabInstance: {fileID: 0}
  m_PrefabAsset: {fileID: 0}
  m_GameObject: {fileID: 90831113}
  m_Enabled: 1
  m_EditorHideFlags: 0
  m_Script: {fileID: -73581967, guid: e743331561ef77147ae48cda9bcb8209, type: 3}
  m_Name: 
  m_EditorClassIdentifier: 
  previewOnGUI: 1
  enableGUILayout: 1
  drawStateLabels: 1
  GUITextureStateLabels: 1
  GUITextStateLabels: 1
  filterLabelsWithDistance: 0
  maxLabelDistance: 10
  controlMouseCursor: 1
--- !u!4 &90831115
Transform:
  m_ObjectHideFlags: 0
  m_CorrespondingSourceObject: {fileID: 0}
  m_PrefabInstance: {fileID: 0}
  m_PrefabAsset: {fileID: 0}
  m_GameObject: {fileID: 90831113}
  m_LocalRotation: {x: 0, y: 0, z: 0, w: 1}
  m_LocalPosition: {x: 0, y: 0, z: 0}
  m_LocalScale: {x: 1, y: 1, z: 1}
  m_Children: []
  m_Father: {fileID: 0}
  m_RootOrder: 2
  m_LocalEulerAnglesHint: {x: 0, y: 0, z: 0}
--- !u!1 &1610451242
GameObject:
  m_ObjectHideFlags: 0
  m_CorrespondingSourceObject: {fileID: 0}
  m_PrefabInstance: {fileID: 0}
  m_PrefabAsset: {fileID: 0}
  serializedVersion: 6
  m_Component:
  - component: {fileID: 1610451244}
  - component: {fileID: 1610451243}
  m_Layer: 0
  m_Name: Save Slot Button 1
  m_TagString: Untagged
  m_Icon: {fileID: 0}
  m_NavMeshLayer: 0
  m_StaticEditorFlags: 0
  m_IsActive: 1
--- !u!114 &1610451243
MonoBehaviour:
  m_ObjectHideFlags: 0
  m_CorrespondingSourceObject: {fileID: 0}
  m_PrefabInstance: {fileID: 0}
  m_PrefabAsset: {fileID: 0}
  m_GameObject: {fileID: 1610451242}
  m_Enabled: 1
  m_EditorHideFlags: 0
  m_Script: {fileID: 1384774831, guid: e743331561ef77147ae48cda9bcb8209, type: 3}
  m_Name: 
  m_EditorClassIdentifier: 
  fsm: {usedInTemplate: {fileID: 0}, name: Save Slot Button, startState: Idle, states:
    - name: Idle
      description: 
      colorIndex: 0
      position:
        x: 54
        y: 102
        width: 100
        height: 32
      isBreakpoint: 0
      isSequence: 0
      hideUnused: 0
      transitions:
      - fsmEvent:
          name: FINISHED
          isSystemEvent: 1
          isGlobal: 0
        toState: Exists
        linkStyle: 0
        linkConstraint: 0
        colorIndex: 0
      actionData:
        actionNames:
        - HutongGames.PlayMaker.Actions.GUIButton
        customNames:
        - 
        actionEnabled: "\x01"
        actionIsOpen: "\x01"
        actionStartIndex: 00000000
        actionHashCodes: 4cc8fcef
        unityObjectParams: []
        fsmGameObjectParams: []
        fsmOwnerDefaultParams: []
        animationCurveParams: []
        functionCallParams: []
        fsmTemplateControlParams: []
        fsmEventTargetParams: []
        fsmPropertyParams: []
        layoutOptionParams: []
        fsmStringParams:
        - useVariable: 0
          name: 
          tooltip: 
          showInInspector: 0
          networkSync: 0
          value: Save Slot 1
        - useVariable: 0
          name: 
          tooltip: 
          showInInspector: 0
          networkSync: 0
          value: 
        - useVariable: 0
          name: 
          tooltip: 
          showInInspector: 0
          networkSync: 0
          value: Button
        fsmObjectParams:
        - useVariable: 0
          name: 
          tooltip: 
          showInInspector: 0
          networkSync: 0
          typeName: 
          value: {fileID: 0}
        fsmVarParams: []
        byteData: FINISHED
        arrayParamSizes: 
        arrayParamTypes: []
        customTypeSizes: 
        customTypeNames: []
        paramDataType: 1700000011000000210000001200000012000000120000001e0000000f0000000f0000000f0000000f00000011000000
        paramName:
        - sendEvent
        - storeButtonState
        - image
        - text
        - tooltip
        - style
        - screenRect
        - left
        - top
        - width
        - height
        - normalized
        paramDataPos: 0000000008000000000000000000000001000000020000000a0000001b00000020000000250000002a0000002f000000
        paramByteDataSize: 080000000200000000000000000000000000000000000000110000000500000005000000050000000500000002000000
    - name: Exists
      description: 
      colorIndex: 0
      position:
        x: 56
        y: 198
        width: 115
        height: 48
      isBreakpoint: 0
      isSequence: 0
      hideUnused: 0
      transitions:
      - fsmEvent:
          name: EXISTS
          isSystemEvent: 0
          isGlobal: 0
        toState: Load
        linkStyle: 0
        linkConstraint: 0
        colorIndex: 0
      - fsmEvent:
          name: DOESNOTEXIST
          isSystemEvent: 0
          isGlobal: 0
        toState: Load Level
        linkStyle: 0
        linkConstraint: 0
        colorIndex: 0
      actionData:
        actionNames:
        - HutongGames.PlayMaker.Actions.Exists
        - HutongGames.PlayMaker.Actions.SetStringValue
        customNames:
        - 
        - 
        actionEnabled: "\x01\x01"
        actionIsOpen: "\x01\x01"
        actionStartIndex: 0000000004000000
        actionHashCodes: 6c6bd90dc9be26cb
        unityObjectParams: []
        fsmGameObjectParams: []
        fsmOwnerDefaultParams: []
        animationCurveParams: []
        functionCallParams: []
        fsmTemplateControlParams: []
        fsmEventTargetParams: []
        fsmPropertyParams: []
        layoutOptionParams: []
        fsmStringParams:
        - useVariable: 0
          name: 
          tooltip: 
          showInInspector: 0
          networkSync: 0
          value: levelnumber1
        - useVariable: 0
          name: 
          tooltip: 
          showInInspector: 0
          networkSync: 0
          value: defaultES2File.txt
        - useVariable: 1
          name: SaveSlot
          tooltip: 
          showInInspector: 0
          networkSync: 0
          value: 
        - useVariable: 0
          name: 
          tooltip: 
          showInInspector: 0
          networkSync: 0
          value: levelnumber1
        fsmObjectParams: []
        fsmVarParams: []
        byteData: EXISTSDOESNOTEXIST
        arrayParamSizes: 
        arrayParamTypes: []
        customTypeSizes: 
        customTypeNames: []
        paramDataType: 17000000170000001200000012000000120000001200000001000000
        paramName:
        - ifExists
        - ifDoesNotExist
        - tag
        - filename
        - stringVariable
        - stringValue
        - everyFrame
        paramDataPos: 00000000060000000000000001000000020000000300000012000000
        paramByteDataSize: 060000000c0000000000000000000000000000000000000001000000
    - name: Load
      description: 
      colorIndex: 0
      position:
        x: 240
        y: 257
        width: 100
        height: 32
      isBreakpoint: 0
      isSequence: 0
      hideUnused: 0
      transitions:
      - fsmEvent:
          name: FINISHED
          isSystemEvent: 1
          isGlobal: 0
        toState: Load Level
        linkStyle: 0
        linkConstraint: 0
        colorIndex: 0
      actionData:
        actionNames:
        - HutongGames.PlayMaker.Actions.LoadInt
        customNames:
        - 
        actionEnabled: "\x01"
        actionIsOpen: "\x01"
        actionStartIndex: 00000000
        actionHashCodes: 226e36c8
        unityObjectParams: []
        fsmGameObjectParams: []
        fsmOwnerDefaultParams: []
        animationCurveParams: []
        functionCallParams: []
        fsmTemplateControlParams: []
        fsmEventTargetParams: []
        fsmPropertyParams: []
        layoutOptionParams: []
        fsmStringParams:
        - useVariable: 0
          name: 
          tooltip: 
          showInInspector: 0
          networkSync: 0
          value: levelnumber1
        - useVariable: 0
          name: 
          tooltip: 
          showInInspector: 0
          networkSync: 0
          value: defaultFile.txt
        - useVariable: 0
          name: 
          tooltip: 
          showInInspector: 0
          networkSync: 0
          value: f2WYP35djvxP2pdR
        fsmObjectParams: []
        fsmVarParams: []
        byteData: 
        arrayParamSizes: 
        arrayParamTypes: []
        customTypeSizes: 
        customTypeNames: []
        paramDataType: 1000000012000000120000001100000012000000
        paramName:
        - loadValue
        - tag
        - filename
        - encrypt
        - encryptionPassword
        paramDataPos: 0000000000000000010000001000000002000000
        paramByteDataSize: 1000000000000000000000000200000000000000
    - name: Load Level
      description: 
      colorIndex: 0
      position:
        x: 50
        y: 324
        width: 100
        height: 16
      isBreakpoint: 0
      isSequence: 0
      hideUnused: 0
      transitions: []
      actionData:
        actionNames:
        - HutongGames.PlayMaker.Actions.LoadLevelNum
        customNames:
        - 
        actionEnabled: "\x01"
        actionIsOpen: "\x01"
        actionStartIndex: 00000000
        actionHashCodes: 743d2550
        unityObjectParams: []
        fsmGameObjectParams: []
        fsmOwnerDefaultParams: []
        animationCurveParams: []
        functionCallParams: []
        fsmTemplateControlParams: []
        fsmEventTargetParams: []
        fsmPropertyParams: []
        layoutOptionParams: []
        fsmStringParams: []
        fsmObjectParams: []
        fsmVarParams: []
        byteData: 
        arrayParamSizes: 
        arrayParamTypes: []
        customTypeSizes: 
        customTypeNames: []
        paramDataType: 10000000010000001700000011000000
        paramName:
        - levelIndex
        - additive
        - loadedEvent
        - dontDestroyOnLoad
        paramDataPos: 00000000100000001100000011000000
        paramByteDataSize: 10000000010000000000000002000000
, events:
    - name: FINISHED
      isSystemEvent: 1
      isGlobal: 0
    - name: MOUSE DOWN
      isSystemEvent: 1
      isGlobal: 0
    - name: DOESNOTEXIST
      isSystemEvent: 0
      isGlobal: 0
    - name: EXISTS
      isSystemEvent: 0
      isGlobal: 0
, globalTransitions: []
, variables:
      floatVariables: []
      intVariables:
      - useVariable: 1
        name: LevelNumber
        tooltip: 
        showInInspector: 0
        networkSync: 0
        value: 1
      boolVariables: []
      stringVariables: []
      vector2Variables: []
      vector3Variables: []
      colorVariables: []
      rectVariables: []
      quaternionVariables: []
      gameObjectVariables: []
      objectVariables: []
      materialVariables: []
      textureVariables: []
, description: , docUrl: , showStateLabel: 1, maxLoopCount: 0, watermark: , version: 0,
    ExposedEvents: []
, RestartOnEnable: 1, EnableDebugFlow: 0, StepFrame: 0, activeStateName: }
  fsmTemplate: {fileID: 0}
--- !u!4 &1610451244
Transform:
  m_ObjectHideFlags: 0
  m_CorrespondingSourceObject: {fileID: 0}
  m_PrefabInstance: {fileID: 0}
  m_PrefabAsset: {fileID: 0}
  m_GameObject: {fileID: 1610451242}
  m_LocalRotation: {x: 0, y: 0, z: 0, w: 1}
  m_LocalPosition: {x: 0, y: 1, z: 0}
  m_LocalScale: {x: 1, y: 1, z: 1}
  m_Children: []
  m_Father: {fileID: 0}
  m_RootOrder: 1
  m_LocalEulerAnglesHint: {x: 0, y: 0, z: 0}
--- !u!1 &1617991250
GameObject:
  m_ObjectHideFlags: 0
  m_CorrespondingSourceObject: {fileID: 0}
  m_PrefabInstance: {fileID: 0}
  m_PrefabAsset: {fileID: 0}
  serializedVersion: 6
  m_Component:
  - component: {fileID: 1617991252}
  - component: {fileID: 1617991251}
  m_Layer: 0
  m_Name: Save Slot Button 2
  m_TagString: Untagged
  m_Icon: {fileID: 0}
  m_NavMeshLayer: 0
  m_StaticEditorFlags: 0
  m_IsActive: 1
--- !u!114 &1617991251
MonoBehaviour:
  m_ObjectHideFlags: 0
  m_CorrespondingSourceObject: {fileID: 0}
  m_PrefabInstance: {fileID: 0}
  m_PrefabAsset: {fileID: 0}
  m_GameObject: {fileID: 1617991250}
  m_Enabled: 1
  m_EditorHideFlags: 0
  m_Script: {fileID: 1384774831, guid: e743331561ef77147ae48cda9bcb8209, type: 3}
  m_Name: 
  m_EditorClassIdentifier: 
  fsm: {usedInTemplate: {fileID: 0}, name: Save Slot Button, startState: Idle, states:
    - name: Idle
      description: 
      colorIndex: 0
      position:
        x: 54
        y: 102
        width: 100
        height: 32
      isBreakpoint: 0
      isSequence: 0
      hideUnused: 0
      transitions:
      - fsmEvent:
          name: FINISHED
          isSystemEvent: 1
          isGlobal: 0
        toState: Exists
        linkStyle: 0
        linkConstraint: 0
        colorIndex: 0
      actionData:
        actionNames:
        - HutongGames.PlayMaker.Actions.GUIButton
        customNames:
        - 
        actionEnabled: "\x01"
        actionIsOpen: "\x01"
        actionStartIndex: 00000000
        actionHashCodes: 4cc8fcef
        unityObjectParams: []
        fsmGameObjectParams: []
        fsmOwnerDefaultParams: []
        animationCurveParams: []
        functionCallParams: []
        fsmTemplateControlParams: []
        fsmEventTargetParams: []
        fsmPropertyParams: []
        layoutOptionParams: []
        fsmStringParams:
        - useVariable: 0
          name: 
          tooltip: 
          showInInspector: 0
          networkSync: 0
          value: Save Slot 2
        - useVariable: 0
          name: 
          tooltip: 
          showInInspector: 0
          networkSync: 0
          value: 
        - useVariable: 0
          name: 
          tooltip: 
          showInInspector: 0
          networkSync: 0
          value: Button
        fsmObjectParams:
        - useVariable: 0
          name: 
          tooltip: 
          showInInspector: 0
          networkSync: 0
          typeName: 
          value: {fileID: 0}
        fsmVarParams: []
        byteData: FINISHED
        arrayParamSizes: 
        arrayParamTypes: []
        customTypeSizes: 
        customTypeNames: []
        paramDataType: 1700000011000000210000001200000012000000120000001e0000000f0000000f0000000f0000000f00000011000000
        paramName:
        - sendEvent
        - storeButtonState
        - image
        - text
        - tooltip
        - style
        - screenRect
        - left
        - top
        - width
        - height
        - normalized
        paramDataPos: 0000000008000000000000000000000001000000020000000a0000001b00000020000000250000002a0000002f000000
        paramByteDataSize: 080000000200000000000000000000000000000000000000110000000500000005000000050000000500000002000000
    - name: Exists
      description: 
      colorIndex: 0
      position:
        x: 56
        y: 198
        width: 115
        height: 48
      isBreakpoint: 0
      isSequence: 0
      hideUnused: 0
      transitions:
      - fsmEvent:
          name: EXISTS
          isSystemEvent: 0
          isGlobal: 0
        toState: Load
        linkStyle: 0
        linkConstraint: 0
        colorIndex: 0
      - fsmEvent:
          name: DOESNOTEXIST
          isSystemEvent: 0
          isGlobal: 0
        toState: Load Level
        linkStyle: 0
        linkConstraint: 0
        colorIndex: 0
      actionData:
        actionNames:
        - HutongGames.PlayMaker.Actions.Exists
        - HutongGames.PlayMaker.Actions.SetStringValue
        customNames:
        - 
        - 
        actionEnabled: "\x01\x01"
        actionIsOpen: "\x01\x01"
        actionStartIndex: 0000000004000000
        actionHashCodes: 6c6bd90dc9be26cb
        unityObjectParams: []
        fsmGameObjectParams: []
        fsmOwnerDefaultParams: []
        animationCurveParams: []
        functionCallParams: []
        fsmTemplateControlParams: []
        fsmEventTargetParams: []
        fsmPropertyParams: []
        layoutOptionParams: []
        fsmStringParams:
        - useVariable: 0
          name: 
          tooltip: 
          showInInspector: 0
          networkSync: 0
          value: levelnumber2
        - useVariable: 0
          name: 
          tooltip: 
          showInInspector: 0
          networkSync: 0
          value: defaultES2File.txt
        - useVariable: 1
          name: SaveSlot
          tooltip: 
          showInInspector: 0
          networkSync: 0
          value: 
        - useVariable: 0
          name: 
          tooltip: 
          showInInspector: 0
          networkSync: 0
          value: levelnumber2
        fsmObjectParams: []
        fsmVarParams: []
        byteData: EXISTSDOESNOTEXIST
        arrayParamSizes: 
        arrayParamTypes: []
        customTypeSizes: 
        customTypeNames: []
        paramDataType: 17000000170000001200000012000000120000001200000001000000
        paramName:
        - ifExists
        - ifDoesNotExist
        - tag
        - filename
        - stringVariable
        - stringValue
        - everyFrame
        paramDataPos: 00000000060000000000000001000000020000000300000012000000
        paramByteDataSize: 060000000c0000000000000000000000000000000000000001000000
    - name: Load
      description: 
      colorIndex: 0
      position:
        x: 240
        y: 257
        width: 100
        height: 32
      isBreakpoint: 0
      isSequence: 0
      hideUnused: 0
      transitions:
      - fsmEvent:
          name: FINISHED
          isSystemEvent: 1
          isGlobal: 0
        toState: Load Level
        linkStyle: 0
        linkConstraint: 0
        colorIndex: 0
      actionData:
        actionNames:
        - HutongGames.PlayMaker.Actions.LoadInt
        customNames:
        - 
        actionEnabled: "\x01"
        actionIsOpen: "\x01"
        actionStartIndex: 00000000
        actionHashCodes: 226e36c8
        unityObjectParams: []
        fsmGameObjectParams: []
        fsmOwnerDefaultParams: []
        animationCurveParams: []
        functionCallParams: []
        fsmTemplateControlParams: []
        fsmEventTargetParams: []
        fsmPropertyParams: []
        layoutOptionParams: []
        fsmStringParams:
        - useVariable: 0
          name: 
          tooltip: 
          showInInspector: 0
          networkSync: 0
          value: levelnumber2
        - useVariable: 0
          name: 
          tooltip: 
          showInInspector: 0
          networkSync: 0
          value: defaultFile.txt
        - useVariable: 0
          name: 
          tooltip: 
          showInInspector: 0
          networkSync: 0
          value: f2WYP35djvxP2pdR
        fsmObjectParams: []
        fsmVarParams: []
        byteData: 
        arrayParamSizes: 
        arrayParamTypes: []
        customTypeSizes: 
        customTypeNames: []
        paramDataType: 1000000012000000120000001100000012000000
        paramName:
        - loadValue
        - tag
        - filename
        - encrypt
        - encryptionPassword
        paramDataPos: 0000000000000000010000001000000002000000
        paramByteDataSize: 1000000000000000000000000200000000000000
    - name: Load Level
      description: 
      colorIndex: 0
      position:
        x: 50
        y: 324
        width: 100
        height: 16
      isBreakpoint: 0
      isSequence: 0
      hideUnused: 0
      transitions: []
      actionData:
        actionNames:
        - HutongGames.PlayMaker.Actions.LoadLevelNum
        customNames:
        - 
        actionEnabled: "\x01"
        actionIsOpen: "\x01"
        actionStartIndex: 00000000
        actionHashCodes: 743d2550
        unityObjectParams: []
        fsmGameObjectParams: []
        fsmOwnerDefaultParams: []
        animationCurveParams: []
        functionCallParams: []
        fsmTemplateControlParams: []
        fsmEventTargetParams: []
        fsmPropertyParams: []
        layoutOptionParams: []
        fsmStringParams: []
        fsmObjectParams: []
        fsmVarParams: []
        byteData: 
        arrayParamSizes: 
        arrayParamTypes: []
        customTypeSizes: 
        customTypeNames: []
        paramDataType: 10000000010000001700000011000000
        paramName:
        - levelIndex
        - additive
        - loadedEvent
        - dontDestroyOnLoad
        paramDataPos: 00000000100000001100000011000000
        paramByteDataSize: 10000000010000000000000002000000
, events:
    - name: FINISHED
      isSystemEvent: 1
      isGlobal: 0
    - name: MOUSE DOWN
      isSystemEvent: 1
      isGlobal: 0
    - name: DOESNOTEXIST
      isSystemEvent: 0
      isGlobal: 0
    - name: EXISTS
      isSystemEvent: 0
      isGlobal: 0
, globalTransitions: []
, variables:
      floatVariables: []
      intVariables:
      - useVariable: 1
        name: LevelNumber
        tooltip: 
        showInInspector: 0
        networkSync: 0
        value: 1
      boolVariables: []
      stringVariables: []
      vector2Variables: []
      vector3Variables: []
      colorVariables: []
      rectVariables: []
      quaternionVariables: []
      gameObjectVariables: []
      objectVariables: []
      materialVariables: []
      textureVariables: []
, description: , docUrl: , showStateLabel: 1, maxLoopCount: 0, watermark: , version: 0,
    ExposedEvents: []
, RestartOnEnable: 1, EnableDebugFlow: 0, StepFrame: 0, activeStateName: }
  fsmTemplate: {fileID: 0}
--- !u!4 &1617991252
Transform:
  m_ObjectHideFlags: 0
  m_CorrespondingSourceObject: {fileID: 0}
  m_PrefabInstance: {fileID: 0}
  m_PrefabAsset: {fileID: 0}
  m_GameObject: {fileID: 1617991250}
  m_LocalRotation: {x: 0, y: 0, z: 0, w: 1}
  m_LocalPosition: {x: 0, y: 1, z: 0}
  m_LocalScale: {x: 1, y: 1, z: 1}
  m_Children: []
  m_Father: {fileID: 0}
  m_RootOrder: 3
  m_LocalEulerAnglesHint: {x: 0, y: 0, z: 0}
--- !u!1 &1884737944
GameObject:
  m_ObjectHideFlags: 0
  m_CorrespondingSourceObject: {fileID: 0}
  m_PrefabInstance: {fileID: 0}
  m_PrefabAsset: {fileID: 0}
  serializedVersion: 6
  m_Component:
  - component: {fileID: 1884737946}
  - component: {fileID: 1884737945}
  m_Layer: 0
  m_Name: Save Slot Button 3
  m_TagString: Untagged
  m_Icon: {fileID: 0}
  m_NavMeshLayer: 0
  m_StaticEditorFlags: 0
  m_IsActive: 1
--- !u!114 &1884737945
MonoBehaviour:
  m_ObjectHideFlags: 0
  m_CorrespondingSourceObject: {fileID: 0}
  m_PrefabInstance: {fileID: 0}
  m_PrefabAsset: {fileID: 0}
  m_GameObject: {fileID: 1884737944}
  m_Enabled: 1
  m_EditorHideFlags: 0
  m_Script: {fileID: 1384774831, guid: e743331561ef77147ae48cda9bcb8209, type: 3}
  m_Name: 
  m_EditorClassIdentifier: 
  fsm: {usedInTemplate: {fileID: 0}, name: Save Slot Button, startState: Idle, states:
    - name: Idle
      description: 
      colorIndex: 0
      position:
        x: 54
        y: 102
        width: 100
        height: 32
      isBreakpoint: 0
      isSequence: 0
      hideUnused: 0
      transitions:
      - fsmEvent:
          name: FINISHED
          isSystemEvent: 1
          isGlobal: 0
        toState: Exists
        linkStyle: 0
        linkConstraint: 0
        colorIndex: 0
      actionData:
        actionNames:
        - HutongGames.PlayMaker.Actions.GUIButton
        customNames:
        - 
        actionEnabled: "\x01"
        actionIsOpen: "\x01"
        actionStartIndex: 00000000
        actionHashCodes: 4cc8fcef
        unityObjectParams: []
        fsmGameObjectParams: []
        fsmOwnerDefaultParams: []
        animationCurveParams: []
        functionCallParams: []
        fsmTemplateControlParams: []
        fsmEventTargetParams: []
        fsmPropertyParams: []
        layoutOptionParams: []
        fsmStringParams:
        - useVariable: 0
          name: 
          tooltip: 
          showInInspector: 0
          networkSync: 0
          value: Save Slot 3
        - useVariable: 0
          name: 
          tooltip: 
          showInInspector: 0
          networkSync: 0
          value: 
        - useVariable: 0
          name: 
          tooltip: 
          showInInspector: 0
          networkSync: 0
          value: Button
        fsmObjectParams:
        - useVariable: 0
          name: 
          tooltip: 
          showInInspector: 0
          networkSync: 0
          typeName: 
          value: {fileID: 0}
        fsmVarParams: []
        byteData: FINISHED
        arrayParamSizes: 
        arrayParamTypes: []
        customTypeSizes: 
        customTypeNames: []
        paramDataType: 1700000011000000210000001200000012000000120000001e0000000f0000000f0000000f0000000f00000011000000
        paramName:
        - sendEvent
        - storeButtonState
        - image
        - text
        - tooltip
        - style
        - screenRect
        - left
        - top
        - width
        - height
        - normalized
        paramDataPos: 0000000008000000000000000000000001000000020000000a0000001b00000020000000250000002a0000002f000000
        paramByteDataSize: 080000000200000000000000000000000000000000000000110000000500000005000000050000000500000002000000
    - name: Exists
      description: 
      colorIndex: 0
      position:
        x: 56
        y: 198
        width: 115
        height: 48
      isBreakpoint: 0
      isSequence: 0
      hideUnused: 0
      transitions:
      - fsmEvent:
          name: EXISTS
          isSystemEvent: 0
          isGlobal: 0
        toState: Load
        linkStyle: 0
        linkConstraint: 0
        colorIndex: 0
      - fsmEvent:
          name: DOESNOTEXIST
          isSystemEvent: 0
          isGlobal: 0
        toState: Load Level
        linkStyle: 0
        linkConstraint: 0
        colorIndex: 0
      actionData:
        actionNames:
        - HutongGames.PlayMaker.Actions.Exists
        - HutongGames.PlayMaker.Actions.SetStringValue
        customNames:
        - 
        - 
        actionEnabled: "\x01\x01"
        actionIsOpen: "\x01\x01"
        actionStartIndex: 0000000004000000
        actionHashCodes: 6c6bd90dc9be26cb
        unityObjectParams: []
        fsmGameObjectParams: []
        fsmOwnerDefaultParams: []
        animationCurveParams: []
        functionCallParams: []
        fsmTemplateControlParams: []
        fsmEventTargetParams: []
        fsmPropertyParams: []
        layoutOptionParams: []
        fsmStringParams:
        - useVariable: 0
          name: 
          tooltip: 
          showInInspector: 0
          networkSync: 0
          value: levelnumber3
        - useVariable: 0
          name: 
          tooltip: 
          showInInspector: 0
          networkSync: 0
          value: defaultES2File.txt
        - useVariable: 1
          name: SaveSlot
          tooltip: 
          showInInspector: 0
          networkSync: 0
          value: 
        - useVariable: 0
          name: 
          tooltip: 
          showInInspector: 0
          networkSync: 0
          value: levelnumber3
        fsmObjectParams: []
        fsmVarParams: []
        byteData: EXISTSDOESNOTEXIST
        arrayParamSizes: 
        arrayParamTypes: []
        customTypeSizes: 
        customTypeNames: []
        paramDataType: 17000000170000001200000012000000120000001200000001000000
        paramName:
        - ifExists
        - ifDoesNotExist
        - tag
        - filename
        - stringVariable
        - stringValue
        - everyFrame
        paramDataPos: 00000000060000000000000001000000020000000300000012000000
        paramByteDataSize: 060000000c0000000000000000000000000000000000000001000000
    - name: Load
      description: 
      colorIndex: 0
      position:
        x: 240
        y: 257
        width: 100
        height: 32
      isBreakpoint: 0
      isSequence: 0
      hideUnused: 0
      transitions:
      - fsmEvent:
          name: FINISHED
          isSystemEvent: 1
          isGlobal: 0
        toState: Load Level
        linkStyle: 0
        linkConstraint: 0
        colorIndex: 0
      actionData:
        actionNames:
        - HutongGames.PlayMaker.Actions.LoadInt
        customNames:
        - 
        actionEnabled: "\x01"
        actionIsOpen: "\x01"
        actionStartIndex: 00000000
        actionHashCodes: 226e36c8
        unityObjectParams: []
        fsmGameObjectParams: []
        fsmOwnerDefaultParams: []
        animationCurveParams: []
        functionCallParams: []
        fsmTemplateControlParams: []
        fsmEventTargetParams: []
        fsmPropertyParams: []
        layoutOptionParams: []
        fsmStringParams:
        - useVariable: 0
          name: 
          tooltip: 
          showInInspector: 0
          networkSync: 0
          value: levelnumber3
        - useVariable: 0
          name: 
          tooltip: 
          showInInspector: 0
          networkSync: 0
          value: defaultFile.txt
        - useVariable: 0
          name: 
          tooltip: 
          showInInspector: 0
          networkSync: 0
          value: f2WYP35djvxP2pdR
        fsmObjectParams: []
        fsmVarParams: []
        byteData: 
        arrayParamSizes: 
        arrayParamTypes: []
        customTypeSizes: 
        customTypeNames: []
        paramDataType: 1000000012000000120000001100000012000000
        paramName:
        - loadValue
        - tag
        - filename
        - encrypt
        - encryptionPassword
        paramDataPos: 0000000000000000010000001000000002000000
        paramByteDataSize: 1000000000000000000000000200000000000000
    - name: Load Level
      description: 
      colorIndex: 0
      position:
        x: 50
        y: 324
        width: 100
        height: 16
      isBreakpoint: 0
      isSequence: 0
      hideUnused: 0
      transitions: []
      actionData:
        actionNames:
        - HutongGames.PlayMaker.Actions.LoadLevelNum
        customNames:
        - 
        actionEnabled: "\x01"
        actionIsOpen: "\x01"
        actionStartIndex: 00000000
        actionHashCodes: 743d2550
        unityObjectParams: []
        fsmGameObjectParams: []
        fsmOwnerDefaultParams: []
        animationCurveParams: []
        functionCallParams: []
        fsmTemplateControlParams: []
        fsmEventTargetParams: []
        fsmPropertyParams: []
        layoutOptionParams: []
        fsmStringParams: []
        fsmObjectParams: []
        fsmVarParams: []
        byteData: 
        arrayParamSizes: 
        arrayParamTypes: []
        customTypeSizes: 
        customTypeNames: []
        paramDataType: 10000000010000001700000011000000
        paramName:
        - levelIndex
        - additive
        - loadedEvent
        - dontDestroyOnLoad
        paramDataPos: 00000000100000001100000011000000
        paramByteDataSize: 10000000010000000000000002000000
, events:
    - name: FINISHED
      isSystemEvent: 1
      isGlobal: 0
    - name: MOUSE DOWN
      isSystemEvent: 1
      isGlobal: 0
    - name: DOESNOTEXIST
      isSystemEvent: 0
      isGlobal: 0
    - name: EXISTS
      isSystemEvent: 0
      isGlobal: 0
, globalTransitions: []
, variables:
      floatVariables: []
      intVariables:
      - useVariable: 1
        name: LevelNumber
        tooltip: 
        showInInspector: 0
        networkSync: 0
        value: 1
      boolVariables: []
      stringVariables: []
      vector2Variables: []
      vector3Variables: []
      colorVariables: []
      rectVariables: []
      quaternionVariables: []
      gameObjectVariables: []
      objectVariables: []
      materialVariables: []
      textureVariables: []
, description: , docUrl: , showStateLabel: 1, maxLoopCount: 0, watermark: , version: 0,
    ExposedEvents: []
, RestartOnEnable: 1, EnableDebugFlow: 0, StepFrame: 0, activeStateName: }
  fsmTemplate: {fileID: 0}
--- !u!4 &1884737946
Transform:
  m_ObjectHideFlags: 0
  m_CorrespondingSourceObject: {fileID: 0}
  m_PrefabInstance: {fileID: 0}
  m_PrefabAsset: {fileID: 0}
  m_GameObject: {fileID: 1884737944}
  m_LocalRotation: {x: 0, y: 0, z: 0, w: 1}
  m_LocalPosition: {x: 0, y: 1, z: 0}
  m_LocalScale: {x: 1, y: 1, z: 1}
  m_Children: []
  m_Father: {fileID: 0}
  m_RootOrder: 4
  m_LocalEulerAnglesHint: {x: 0, y: 0, z: 0}
--- !u!1 &2080083145
GameObject:
  m_ObjectHideFlags: 0
  m_CorrespondingSourceObject: {fileID: 0}
  m_PrefabInstance: {fileID: 0}
  m_PrefabAsset: {fileID: 0}
  serializedVersion: 6
  m_Component:
  - component: {fileID: 2080083150}
  - component: {fileID: 2080083149}
  - component: {fileID: 2080083147}
  - component: {fileID: 2080083146}
  m_Layer: 0
  m_Name: Main Camera
  m_TagString: MainCamera
  m_Icon: {fileID: 0}
  m_NavMeshLayer: 0
  m_StaticEditorFlags: 0
  m_IsActive: 1
--- !u!81 &2080083146
AudioListener:
  m_ObjectHideFlags: 0
  m_CorrespondingSourceObject: {fileID: 0}
  m_PrefabInstance: {fileID: 0}
  m_PrefabAsset: {fileID: 0}
  m_GameObject: {fileID: 2080083145}
  m_Enabled: 1
--- !u!124 &2080083147
Behaviour:
  m_ObjectHideFlags: 0
  m_CorrespondingSourceObject: {fileID: 0}
  m_PrefabInstance: {fileID: 0}
  m_PrefabAsset: {fileID: 0}
  m_GameObject: {fileID: 2080083145}
  m_Enabled: 1
--- !u!20 &2080083149
Camera:
  m_ObjectHideFlags: 0
  m_CorrespondingSourceObject: {fileID: 0}
  m_PrefabInstance: {fileID: 0}
  m_PrefabAsset: {fileID: 0}
  m_GameObject: {fileID: 2080083145}
  m_Enabled: 1
  serializedVersion: 2
  m_ClearFlags: 1
  m_BackGroundColor: {r: 0.19215687, g: 0.3019608, b: 0.4745098, a: 0.019607844}
  m_projectionMatrixMode: 1
  m_GateFitMode: 2
  m_FOVAxisMode: 0
  m_SensorSize: {x: 36, y: 24}
  m_LensShift: {x: 0, y: 0}
  m_FocalLength: 50
  m_NormalizedViewPortRect:
    serializedVersion: 2
    x: 0
    y: 0
    width: 1
    height: 1
  near clip plane: 0.3
  far clip plane: 1000
  field of view: 60
  orthographic: 0
  orthographic size: 5
  m_Depth: -1
  m_CullingMask:
    serializedVersion: 2
    m_Bits: 4294967295
  m_RenderingPath: -1
  m_TargetTexture: {fileID: 0}
  m_TargetDisplay: 0
  m_TargetEye: 3
  m_HDR: 0
  m_AllowMSAA: 1
  m_AllowDynamicResolution: 0
  m_ForceIntoRT: 0
  m_OcclusionCulling: 1
  m_StereoConvergence: 10
  m_StereoSeparation: 0.022
--- !u!4 &2080083150
Transform:
  m_ObjectHideFlags: 0
  m_CorrespondingSourceObject: {fileID: 0}
  m_PrefabInstance: {fileID: 0}
  m_PrefabAsset: {fileID: 0}
  m_GameObject: {fileID: 2080083145}
  m_LocalRotation: {x: 0, y: 0, z: 0, w: 1}
  m_LocalPosition: {x: 0, y: 1, z: -10}
  m_LocalScale: {x: 1, y: 1, z: 1}
  m_Children: []
  m_Father: {fileID: 0}
  m_RootOrder: 0
  m_LocalEulerAnglesHint: {x: 0, y: 0, z: 0}
